…
```r
activity %>%
    group_by(date) %>%
    summarize(mean_steps=mean(steps,na.rm=T),median_steps=median(steps,na.rm=T))
```

```
## # A tibble: 61 x 3
##    date       mean_steps median_steps
##    <date>          <dbl>        <dbl>
##  1 2012-10-01    NaN               NA
##  2 2012-10-02      0.438            0
##  3 2012-10-03     39.4              0
##  4 2012-10-04     42.1              0
##  5 2012-10-05     46.2              0
##  6 2012-10-06     53.5              0
##  7 2012-10-07     38.2              0
##  8 2012-10-08    NaN               NA
##  9 2012-10-09     44.5              0
## 10 2012-10-10     34.4              0
## # ... with 51 more rows
```
…
### Daily Means and Medians with NAs Removed

The main difference is that there are no NaN values.


```r
NAs.replaced %>%
    group_by(date) %>%
    summarize(mean_steps=mean(steps,na.rm=T),median_steps=median(steps,na.rm=T))
```

```
## # A tibble: 61 x 3
##    date       mean_steps median_steps
##    <date>          <dbl>        <dbl>
##  1 2012-10-01     37.4           34.1
##  2 2012-10-02      0.438          0  
##  3 2012-10-03     39.4            0  
##  4 2012-10-04     42.1            0  
##  5 2012-10-05     46.2            0  
##  6 2012-10-06     53.5            0  
##  7 2012-10-07     38.2            0  
##  8 2012-10-08     37.4           34.1
##  9 2012-10-09     44.5            0  
## 10 2012-10-10     34.4            0  
## # ... with 51 more rows
```
…
